[
  {
    "type": "tab",
    "id": "b57c8a29.e11ab8",
    "label": "Flow 1"
  },
  {
    "type": "tab",
    "id": "84751d7b.61c42",
    "label": "Flow 2"
  },
  {
    "id": "ff697ffa.13a1a",
    "type": "http in",
    "z": "b57c8a29.e11ab8",
    "name": "GET hello",
    "url": "/hello",
    "method": "get",
    "swaggerDoc": "",
    "x": 90,
    "y": 194,
    "wires": [
      [
        "ab2ec33b.05d35"
      ]
    ]
  },
  {
    "id": "ab2ec33b.05d35",
    "type": "function",
    "z": "b57c8a29.e11ab8",
    "name": "respond to hello",
    "func": "msg.payload =\"Hello you lard\";\nreturn msg;",
    "outputs": 1,
    "noerr": 0,
    "x": 295,
    "y": 273,
    "wires": [
      [
        "ef1f4a80.a36018"
      ]
    ]
  },
  {
    "id": "ef1f4a80.a36018",
    "type": "http response",
    "z": "b57c8a29.e11ab8",
    "name": "",
    "x": 494,
    "y": 381,
    "wires": []
  }
]